Homework 2
…
means

# A tibble: 3 × 9
  sex   length diameter height whole_weight shucked_weight viscera_weight
  <chr>  <dbl>    <dbl>  <dbl>        <dbl>          <dbl>          <dbl>
1 F      0.610    0.480  0.166        1.18           0.506          0.260
2 I      0.555    0.429  0.143        0.796          0.350          0.170
3 M      0.607    0.476  0.164        1.17           0.515          0.255
# ℹ 2 more variables: shell_weight <dbl>, rings <dbl>

long_means

# A tibble: 24 × 3
   sex   variable       mean_value
   <chr> <chr>               <dbl>
 1 F     length              0.610
 2 F     diameter            0.480
 3 F     height              0.166
 4 F     whole_weight        1.18 
 5 F     shucked_weight      0.506
 6 F     viscera_weight      0.260
 7 F     shell_weight        0.338
 8 F     rings              11.4  
 9 I     length              0.555
10 I     diameter            0.429
# ℹ 14 more rows
…
"high" if rings > 20, and

"med" otherwise

Group df by this new variable and sex and compute avg_weight as the average of the whole_weight + shucked_weight + viscera_weight + shell_weight for each combination of num_rings and sex.

Use the geom_tile() function to create a tile plot of num_rings vs sex with the color indicating of each tile indicating the avg_weight value.

new_df <- df %>%
  mutate(num_rings = case_when(rings < 10 ~ "low",
                               rings >20 ~ "high",
                               TRUE ~ "med"))
new_df

# A tibble: 4,177 × 10
   sex   length diameter height whole_weight shucked_weight viscera_weight
   <chr>  <dbl>    <dbl>  <dbl>        <dbl>          <dbl>          <dbl>
 1 M      0.455    0.365  0.095        0.514         0.224          0.101 
 2 M      0.35     0.265  0.09         0.226         0.0995         0.0485
 3 F      0.53     0.42   0.135        0.677         0.256          0.142 
 4 M      0.44     0.365  0.125        0.516         0.216          0.114 
 5 I      0.33     0.255  0.08         0.205         0.0895         0.0395
 6 I      0.425    0.3    0.095        0.352         0.141          0.0775
 7 F      0.53     0.415  0.15         0.778         0.237          0.142 
 8 F      0.545    0.425  0.125        0.768         0.294          0.150 
 9 M      0.475    0.37   0.125        0.509         0.216          0.112 
10 F      0.55     0.44   0.15         0.894         0.314          0.151 
# ℹ 4,167 more rows
# ℹ 3 more variables: shell_weight <dbl>, rings <dbl>, num_rings <chr>
…
